top.vcd
$version Generated by VerilatedVcd $end
$date Fri Oct 27 10:38:56 2023 $end
$timescale 1ps $end

 $scope module TOP $end
  $var wire 12 ' bcd [11:0] $end
  $var wire  1 # clk $end
  $var wire  1 % en $end
  $var wire  1 $ rst $end
  $var wire  8 & v [7:0] $end
  $scope module top $end
   $var wire 32 * WIDTH [31:0] $end
   $var wire 12 ' bcd [11:0] $end
   $var wire  1 # clk $end
   $var wire  8 ( count [7:0] $end
   $var wire  1 % en $end
   $var wire  1 $ rst $end
   $var wire  8 & v [7:0] $end
   $scope module myCounter $end
    $var wire 32 * WIDTH [31:0] $end
    $var wire  1 # clk $end
    $var wire  8 ( count [7:0] $end
    $var wire  1 % en $end
    $var wire  1 $ rst $end
   $upscope $end
   $scope module myDecoder $end
    $var wire 12 ' BCD [11:0] $end
    $var wire 32 + i [31:0] $end
    $var wire 20 ) result [19:0] $end
    $var wire  8 ( x [7:0] $end
   $upscope $end
  $upscope $end
 $upscope $end
$enddefinitions $end


#0
1#
1$
0%
b00010001 &
b000000000000 '
b00000000 (
b00000000000000000000 )
b00000000000000000000000000001000 *
b00000000000000000000000000001000 +
#1
0#
#2
1#
#3
0#
#4
1#
#5
0#
#6
1#
0$
#7
0#
#8
1#
#9
0#
#10
1#
#11
0#
#12
1#
#13
0#
#14
1#
#15
0#
#16
1#
#17
0#
#18
1#
#19
0#
#20
1#
#21
0#
#22
1#
#23
0#
#24
1#
#25
0#
#26
1#
#27
0#
#28
1#
#29
0#
#30
1#
#31
0#
#32
1#
1$
#33
0#
#34
1#
0$
#35
0#
#36
1#
#37
0#
#38
1#
#39
0#
#40
1#
#41
0#
#42
1#
#43
0#
#44
1#
#45
0#
#46
1#
#47
0#
#48
1#
#49
0#
#50
1#
#51
0#
#52
1#
#53
0#
#54
1#
#55
0#
#56
1#
#57
0#
#58
1#
#59
0#
#60
1#
#61
0#
#62
1#
#63
0#
#64
1#
#65
0#
#66
1#
#67
0#
#68
1#
#69
0#
#70
1#
#71
0#
#72
1#
#73
0#
#74
1#
#75
0#
#76
1#
#77
0#
#78
1#
#79
0#
#80
1#
#81
0#
#82
1#
#83
0#
#84
1#
#85
0#
#86
1#
#87
0#
#88
1#
#89
0#
#90
1#
#91
0#
#92
1#
#93
0#
#94
1#
#95
0#
#96
1#
#97
0#
#98
1#
#99
0#
#100
1#
#101
0#
#102
1#
#103
0#
#104
1#
#105
0#
#106
1#
#107
0#
#108
1#
#109
0#
#110
1#
#111
0#
#112
1#
#113
0#
#114
1#
#115
0#
#116
1#
#117
0#
#118
1#
#119
0#
#120
1#
#121
0#
#122
1#
#123
0#
#124
1#
#125
0#
#126
1#
#127
0#
#128
1#
#129
0#
#130
1#
#131
0#
#132
1#
#133
0#
#134
1#
#135
0#
#136
1#
#137
0#
#138
1#
#139
0#
#140
1#
#141
0#
#142
1#
#143
0#
#144
1#
#145
0#
#146
1#
#147
0#
#148
1#
#149
0#
#150
1#
#151
0#
#152
1#
#153
0#
#154
1#
#155
0#
#156
1#
#157
0#
#158
1#
#159
0#
#160
1#
1%
#161
0#
#162
1#
b000000000001 '
b00000001 (
b00000000000100000000 )
#163
0#
#164
1#
b000000000010 '
b00000010 (
b00000000001000000000 )
#165
0#
#166
1#
b000000000011 '
b00000011 (
b00000000001100000000 )
#167
0#
#168
1#
b000000000100 '
b00000100 (
b00000000010000000000 )
#169
0#
#170
1#
b000000000101 '
b00000101 (
b00000000010100000000 )
#171
0#
#172
1#
b000000000110 '
b00000110 (
b00000000011000000000 )
#173
0#
#174
1#
b000000000111 '
b00000111 (
b00000000011100000000 )
#175
0#
#176
1#
b000000001000 '
b00001000 (
b00000000100000000000 )
#177
0#
#178
1#
b000000001001 '
b00001001 (
b00000000100100000000 )
#179
0#
#180
1#
b000000010000 '
b00001010 (
b00000001000000000000 )
#181
0#
#182
1#
b000000010001 '
b00001011 (
b00000001000100000000 )
#183
0#
#184
1#
b000000010010 '
b00001100 (
b00000001001000000000 )
#185
0#
#186
1#
b000000010011 '
b00001101 (
b00000001001100000000 )
#187
0#
#188
1#
b000000010100 '
b00001110 (
b00000001010000000000 )
#189
0#
#190
1#
b000000010101 '
b00001111 (
b00000001010100000000 )
#191
0#
#192
1#
b000000010110 '
b00010000 (
b00000001011000000000 )
#193
0#
#194
1#
b000000010111 '
b00010001 (
b00000001011100000000 )
#195
0#
#196
1#
b000000011000 '
b00010010 (
b00000001100000000000 )
#197
0#
#198
1#
b000000011001 '
b00010011 (
b00000001100100000000 )
#199
0#
#200
1#
b000000100000 '
b00010100 (
b00000010000000000000 )
#201
0#
#202
1#
b000000100001 '
b00010101 (
b00000010000100000000 )
#203
0#
#204
1#
b000000100010 '
b00010110 (
b00000010001000000000 )
#205
0#
#206
1#
b000000100011 '
b00010111 (
b00000010001100000000 )
#207
0#
#208
1#
b000000100100 '
b00011000 (
b00000010010000000000 )
#209
0#
#210
1#
b000000100101 '
b00011001 (
b00000010010100000000 )
#211
0#
#212
1#
b000000100110 '
b00011010 (
b00000010011000000000 )
#213
0#
#214
1#
b000000100111 '
b00011011 (
b00000010011100000000 )
#215
0#
#216
1#
b000000101000 '
b00011100 (
b00000010100000000000 )
#217
0#
#218
1#
b000000101001 '
b00011101 (
b00000010100100000000 )
#219
0#
#220
1#
b000000110000 '
b00011110 (
b00000011000000000000 )
#221
0#
#222
1#
b000000110001 '
b00011111 (
b00000011000100000000 )
#223
0#
#224
1#
b000000110010 '
b00100000 (
b00000011001000000000 )
#225
0#
#226
1#
b000000110011 '
b00100001 (
b00000011001100000000 )
#227
0#
#228
1#
b000000110100 '
b00100010 (
b00000011010000000000 )
#229
0#
#230
1#
b000000110101 '
b00100011 (
b00000011010100000000 )
#231
0#
#232
1#
b000000110110 '
b00100100 (
b00000011011000000000 )
#233
0#
#234
1#
b000000110111 '
b00100101 (
b00000011011100000000 )
#235
0#
#236
1#
b000000111000 '
b00100110 (
b00000011100000000000 )
#237
0#
#238
1#
b000000111001 '
b00100111 (
b00000011100100000000 )
#239
0#
#240
1#
b000001000000 '
b00101000 (
b00000100000000000000 )
#241
0#
#242
1#
b000001000001 '
b00101001 (
b00000100000100000000 )
#243
0#
#244
1#
b000001000010 '
b00101010 (
b00000100001000000000 )
#245
0#
#246
1#
b000001000011 '
b00101011 (
b00000100001100000000 )
#247
0#
#248
1#
b000001000100 '
b00101100 (
b00000100010000000000 )
#249
0#
#250
1#
b000001000101 '
b00101101 (
b00000100010100000000 )
#251
0#
#252
1#
b000001000110 '
b00101110 (
b00000100011000000000 )
#253
0#
#254
1#
b000001000111 '
b00101111 (
b00000100011100000000 )
#255
0#
#256
1#
b000001001000 '
b00110000 (
b00000100100000000000 )
#257
0#
#258
1#
b000001001001 '
b00110001 (
b00000100100100000000 )
#259
0#
#260
1#
b000001010000 '
b00110010 (
b00000101000000000000 )
#261
0#
#262
1#
b000001010001 '
b00110011 (
b00000101000100000000 )
#263
0#
#264
1#
b000001010010 '
b00110100 (
b00000101001000000000 )
#265
0#
#266
1#
b000001010011 '
b00110101 (
b00000101001100000000 )
#267
0#
#268
1#
b000001010100 '
b00110110 (
b00000101010000000000 )
#269
0#
#270
1#
b000001010101 '
b00110111 (
b00000101010100000000 )
#271
0#
#272
1#
b000001010110 '
b00111000 (
b00000101011000000000 )
#273
0#
#274
1#
b000001010111 '
b00111001 (
b00000101011100000000 )
#275
0#
#276
1#
b000001011000 '
b00111010 (
b00000101100000000000 )
#277
0#
#278
1#
b000001011001 '
b00111011 (
b00000101100100000000 )
#279
0#
#280
1#
b000001100000 '
b00111100 (
b00000110000000000000 )
#281
0#
#282
1#
b000001100001 '
b00111101 (
b00000110000100000000 )
#283
0#
#284
1#
b000001100010 '
b00111110 (
b00000110001000000000 )
#285
0#
#286
1#
b000001100011 '
b00111111 (
b00000110001100000000 )
#287
0#
#288
1#
b000001100100 '
b01000000 (
b00000110010000000000 )
#289
0#
#290
1#
b000001100101 '
b01000001 (
b00000110010100000000 )
#291
0#
#292
1#
b000001100110 '
b01000010 (
b00000110011000000000 )
#293
0#
#294
1#
0%
b000001100111 '
b01000011 (
b00000110011100000000 )
